{
  "model": "CourseAreas",
  "title": "Settings.EditItem",
  "settings": {
    "i18n": {
      "el": {
        "Set the name of this course area":"Ορίστε την ονομασία του γνωστικού αντικειμένου",
        "Set the abbreviation of this item": "Ορίστε την συντομογραφία του στοιχείου",
        "This field must contain only latin characters or numbers. A value is required.": "Το πεδίο αυτό πρέπει να περιέχει μόνο λατινικούς χαρακτήρες ή αριθμούς. Πρέπει να εισαχθεί μια τιμή υποχρεωτικά.",
        "Set an alternate name for this item. This name will be used to identify items. This field must contain only latin characters or numbers and should use camel casing (thisIsCamelCase)":"Ορίστε μία εναλλακτική ονομασία για αυτό το στοιχείο. Αυτό το όνομα θα χρησιμοποιηθεί για την ταυτοποίηση του στοιχείου. Το πεδίο αυτό πρέπει να περιέχει μόνο λατινικούς χαρακτήρες ή αριθμούς και να χρησιμοποιεί ενδιάμεσα κεφαλαία (thisIsCamelCase)",
        "Set the department of this course area": "Όρίστε το τμήμα αυτού του γνωστικού αντικειμένου",
       "This field must contain only latin characters or numbers e.g. active, closed etc. A value is required.": "Αυτό το πεδίο πρέπει να περιέχει μόνον λατινικούς χαρακτήρες ή αριθμούς πχ. active, closed κτλ. Το πεδίο είναι υποχρεωτικό.",
        "Write a short description for this item": "Γράψτε μία σύντομη περιγραφή για αυτό το στοιχείο",
        "Set an identifier that is going to be used either by an external system or by internal processes":"Ορίστε ένα κωδικό ταυτοποίησης ο οποίος πρόκειται να χρησιμοποιηθεί είτε από εξωτερικά συστήματα είτε από εσωτερικές διαδικασίες"
      }
    }
  },
  "components": [
    {
      "type": "fieldset",
      "components": [
        {
          "label": "HTML",
          "tag": "h5",
          "className": "font-weight-normal",
          "content": "{{form.subtitle}}",
          "refreshOnChange": false,
          "tableView": false,
          "key": "subtitle",
          "type": "htmlelement",
          "input": false
        },
        {
          "columns": [
            {
              "components": [
                {
                  "label": "Name",
                  "labelPosition": "top",
                  "widget": {
                    "type": "input"
                  },
                  "validate": {
                    "required": true
                  },
                  "key": "name",
                  "type": "textfield",
                  "input": true,
                  "disabled": false,
                  "description": "Set the name of this course area"
                }
              ],
              "width": 6
            },
            {
              "components": [
                {
                  "label": "Abbreviation",
                  "labelPosition": "top",
                  "validate": {
                    "required": true,
                    "maxLength": 20
                  },
                  "key": "abbreviation",
                  "type": "textfield",
                  "input": true,
                  "description": "Set the abbreviation of this item"
                }
              ],
              "width": 6
            },
            {
              "components": [
                {
                  "label": "Alternate name",
                  "labelPosition": "top",
                  "widget": {
                    "type": "input"
                  },
                  "validate": {
                    "required": true,
                    "pattern": "^[a-zA-Z0-9_+-]+$",
                    "customMessage": "This field must contain only latin characters or numbers. A value is required."
                  },
                  "key": "alternateName",
                  "type": "textfield",
                  "input": true,
                  "description": "Set an alternate name for this item. This name will be used to identify items. This field must contain only latin characters or numbers and should use camel casing (thisIsCamelCase)"
                }
              ],
              "width": 6
            },
            {
              "components": [
                {
                  "label": "Department",
                  "description": "Set the department of this course area",
                  "labelPosition": "top",
                  "widget": "choicesjs",
                  "dataSrc": "url",
                  "data": {
                    "url": "LocalDepartments",
                    "headers": [
                    ]
                  },
                  "searchFields": [
                    "value.id",
                    "value.alternateName"
                  ],
                  "template": "<span class='d-block pr-5 text-truncate'>{{ item.name }}</span>",
                  "selectValues": "value",
                  "disabled": true,
                  "hidden": false,
                  "key": "department",
                  "valueProperty": "id",
                  "lazyLoad": false,
                  "type": "select",
                  "input": true,
                  "validate": {
                    "required": true
                  }
                }
              ],
              "width": 6
            },
            {
              "components": [
                {
                  "label": "Description",
                  "labelPosition": "top",
                  "widget": {
                    "type": "input"
                  },
                  "validate": {
                    "required": false
                  },
                  "key": "description",
                  "type": "textarea",
                  "input": true,
                  "description": "Write a short description for this item"
                }
              ],
              "width": 12
            },
            {
              "components": [
                {
                  "label": "Identifier",
                  "labelPosition": "top",
                  "widget": {
                    "type": "input"
                  },
                  "validate": {
                    "required": false
                  },
                  "key": "identifier",
                  "type": "textfield",
                  "input": true,
                  "description": "Set an identifier that is going to be used either by an external system or by internal processes"
                }
              ],
              "width": 6
            }
          ],
          "customClass": "text-dark",
          "hideLabel": true,
          "type": "columns",
          "input": false
        }
      ]
    },
    {
      "type": "button",
      "label": "Submit",
      "key": "submit",
      "disableOnInvalid": true,
      "input": true
    }
  ]
}
