{
  "model": "Institutes",
  "title": "Settings.Lists.Institute.Description",
  "subtitle": "AddItem",
  "settings": {
    "i18n": {
      "el": {
        "NameHelp": "Ορίστε το όνομα του στοιχείου",
        "AlternateNameHelp": "Ορίστε μία εναλλακτική ονομασία για αυτό το στοιχείο. Αυτό το όνομα θα χρησιμοποιηθεί για την ταυτοποίηση του στοιχείου",
        "IdentifierHelp": "Ο κωδικός αναφοράς μπορεί να χρησιμοποιηθεί από τρίτα συστήματα για την αντιστοίχιση του στοιχείου.",
        "LocalInstituteHelp":"Ένα ίδρυμα που ορίζεται ως τοπικό λαμβάνεται υπόψη στις διαδικασίες επεξεργασίας των στοιχείων του όπως τα προγράμματα σπουδών, τα μαθήματα του κτλ.",
        "UrlHelp": "Ορίστε την ηλεκτρονική διεύθυνση του στοιχείου",
        "NotesHelp": "Γράψτε μία σύντομη περιγραφή ή κάποιες σημειώσεις για αυτό το στοιχείο",
        "RegistrationPeriodsHelp": "Ορίστε τις περιόδους δηλώσεων εξαμήνου για το ίδρυμα. Οι περίοδοι αυτοί θα χρησιμοποιηθούν για τις δηλώσεις εξαμήνου των φοιτητών.",
        "CourseClassUrlTemplateHelp": "Ορίστε την μορφοποίηση των ηλεκτρονικών διευθύνσεων των τάξεων μαθημάτων πχ. https://example.com/classes/${id}",
        "ElearningTemplateUrlHelp": "Ορίστε την μορφοποίηση των ηλεκτρονικών διευθύνσεων διδασκαλίας μαθημάτων πχ. https://example.com/e-learning/classes/${id}",
        "UseDigitalSignatureHelp": "Ενεργοποιήστε την επιλογή αυτή για την χρήση ψηφιακών υπογραφών κατά την κατάθεση της βαθμολογίας από τους διδάσκοντες.",
        "ShowPendingGradesHelp": "Ενεργοποιήστε αυτή την επιλογή για την εμφάνιση των μη οριστικοποιημένων βαθμολογιών.",
        "OnlyForLocalInstituteHelp": "Το στοιχείο αυτό είναι διαθέσιμο μόνον για τοπικά ιδρύματα.",
        "NotYetImplemented": "Δεν υπάρχουν ακόμη διαθέσιμες πληροφορίες για αυτή την οντότητα."
      },
      "en": {
        "NameHelp": "Set the name of this item",
        "AlternateNameHelp": "Set an alternate name for this item. This name will be used to identify items",
        "IdentifierHelp": "Set an identifier that is going to be used either by an external system or by internal processes.",
        "LocalInstituteHelp":"A local institute ",
        "UrlHelp": "Set the url of this item",
        "NotesHelp": "Write a short description or some notes for this item.",
        "RegistrationPeriodsHelp": "The following list contains settings about registration periods of each academic period. Registration periods will be used to validate student period registrations.",
        "CourseClassUrlTemplateHelp": "Set the format of a course class url e.g. https://example.com/classes/${id}",
        "ElearningTemplateUrlHelp": "Set the format of a course e-learning url e.g. https://example.com/e-learning/classes/${id}",
        "UseDigitalSignatureHelp": "Enable this feature to enforce the usage of digital signatures while teachers submitting student grades.",
        "ShowPendingGradesHelp": "Enable this feature if pending grades should be visible before final submission.",
        "OnlyForLocalInstituteHelp": "This attribute is enabled only for local institutes.",
        "NotYetImplemented": "There is no information available yet for this entity."
      }
    }
  },
  "components": [
    {
      "label": "HTML",
      "tag": "h5",
      "className": "font-weight-normal mb-3",
      "content": "{{instance.t(form.subtitle)}}",
      "refreshOnChange": false,
      "tableView": false,
      "key": "subtitle",
      "type": "htmlelement",
      "input": false
    },
    {
      "label": "Tabs",
      "components": [
        {
          "label": "General",
          "key": "general",
          "components": [
            {
              "label": "Columns",
              "columns": [
                {
                  "components": [
                    {
                      "label": "name",
                      "description": "NameHelp",
                      "tableView": true,
                      "validate": {
                        "required": true
                      },
                      "key": "name",
                      "type": "textfield",
                      "input": true,
                      "hideOnChildrenHidden": false
                    },
                    {
                      "label": "identifier",
                      "description": "IdentifierHelp",
                      "tableView": true,
                      "key": "identifier",
                      "type": "textfield",
                      "input": true,
                      "hideOnChildrenHidden": false
                    },
                    {
                      "label": "localInstitute",
                      "description": "LocalInstituteHelp",
                      "tableView": false,
                      "key": "local",
                      "type": "checkbox",
                      "input": true,
                      "defaultValue": false,
                      "hideOnChildrenHidden": false
                    }
                  ],
                  "width": 6,
                  "offset": 0,
                  "push": 0,
                  "pull": 0,
                  "size": "md"
                },
                {
                  "components": [
                    {
                      "label": "alternateName",
                      "description": "AlternateNameHelp",
                      "tableView": true,
                      "key": "alternateName",
                      "type": "textfield",
                      "input": true,
                      "hideOnChildrenHidden": false
                    },
                    {
                      "label": "url",
                      "description": "UrlHelp",
                      "tableView": true,
                      "key": "url",
                      "type": "textfield",
                      "input": true,
                      "hideOnChildrenHidden": false
                    },
                    {
                      "label": "instituteType",
                      "labelPosition": "top",
                      "widget": "choicesjs",
                      "validate": {
                        "required": true
                      },

                      "dataSrc": "url",
                      "data": {
                        "url": "InstituteTypes",
                        "headers": []
                      },
                      "template": "<span class='d-block pr-5 text-truncate'>{{ item.name }}</span>",
                      "selectValues": "value",
                      "key": "instituteType",
                      "valueProperty": "id",
                      "lazyLoad": false,
                      "type": "select",
                      "input": true
                    }
                  ],
                  "width": 6,
                  "offset": 0,
                  "push": 0,
                  "pull": 0,
                  "size": "md"
                }
              ],
              "key": "columns",
              "type": "columns",
              "input": false,
              "tableView": false
            },
            {
              "label": "Notes",
              "placeholder": "NotesHelp",
              "autoExpand": false,
              "tableView": true,
              "key": "notes",
              "type": "textarea",
              "input": true
            }
          ]
        },
        {
          "label": "registrationPeriods",
          "components": [
              {
                  "label": "HTML",
                  "tag": "h5",
                  "className": "font-weight-normal text-secondary mb-3",
                  "content": "{{instance.t('OnlyForLocalInstituteHelp')}}",
                  "refreshOnChange": false,
                  "tableView": false,
                  "type": "htmlelement",
                  "input": false,
                  "conditional": {
                    "show": true,
                    "when": "local",
                    "eq": "false"
                  }
                },
            {
              "label": "RegistrationPeriodsHelp",
              "customClass": "border-0",
              "reorder": false,
              "addAnotherPosition": "bottom",
              "defaultOpen": false,
              "layoutFixed": false,
              "enableRowGroups": false,
              "initEmpty": true,
              "tableView": false,
              "addAnother": "AddItem",
              "key": "registrationPeriods",
              "type": "datagrid",
              "input": true,
              "conditional": {
                  "show": false,
                  "when": "local",
                  "eq": "false"
              },
              "components": [
                {
                  "label": "registrationPeriodStart",
                  "format": "yyyy-MM-dd",
                  "tableView": false,
                  "enableMinDateInput": false,
                  "datePicker": {
                      "disableWeekends": false,
                      "disableWeekdays": false
                  },
                  "enableMaxDateInput": false,
                  "enableTime": false,
                  "key": "registrationPeriodStart",
                  "type": "datetime",
                  "input": true,
                  "widget": {
                      "type": "calendar",
                      "displayInTimezone": "viewer",
                      "locale": "en",
                      "useLocaleSettings": true,
                      "allowInput": true,
                      "mode": "single",
                      "enableTime": false,
                      "noCalendar": false,
                      "format": "yyyy-MM-dd",
                      "hourIncrement": 1,
                      "minuteIncrement": 1,
                      "time_24hr": false,
                      "disableWeekends": false,
                      "disableWeekdays": false
                  }
              },
              {
                "label": "registrationPeriodEnd",
                "format": "yyyy-MM-dd",
                "tableView": false,
                "enableMinDateInput": false,
                "datePicker": {
                    "disableWeekends": false,
                    "disableWeekdays": false
                },
                "enableMaxDateInput": false,
                "enableTime": false,
                "key": "registrationPeriodEnd",
                "type": "datetime",
                "input": true,
                "widget": {
                    "type": "calendar",
                    "displayInTimezone": "viewer",
                    "locale": "en",
                    "useLocaleSettings": true,
                    "allowInput": true,
                    "mode": "single",
                    "enableTime": false,
                    "noCalendar": false,
                    "format": "yyyy-MM-dd",
                    "hourIncrement": 1,
                    "minuteIncrement": 1,
                    "time_24hr": false,
                    "disableWeekends": false,
                    "disableWeekdays": false
                }
            },
                {
                  "label": "academicYear",
                  "labelPosition": "top",
                  "widget": "html5",
                  "dataSrc": "url",
                  "data": {
                    "url": "AcademicYears/?$select=id,name,alternateName&$orderby=id desc",
                    "headers": []
                  },
                  "searchFields": ["id", "name"],
                  "template": "<span class='d-block pr-5 text-truncate'>{{ item.name }}</span>",
                  "selectValues": "value",
                  "key": "academicYear",
                  "valueProperty": "id",
                  "type": "select",
                  "lazyLoad": false,
                  "input": true,
                  "validate": {
                    "required": true
                  }
                },
                {
                  "label": "academicPeriod",
                  "labelPosition": "top",
                  "widget": "html5",
                  "dataSrc": "url",
                  "data": {
                    "url": "AcademicPeriods/?$select=id,name,alternateName&$orderby=id asc",
                    "headers": []
                  },
                  "searchFields": ["id", "name"],
                  "template": "<span class='d-block pr-5 text-truncate'>{{ item.name }}</span>",
                  "selectValues": "value",
                  "key": "academicPeriod",
                  "valueProperty": "id",
                  "type": "select",
                  "lazyLoad": false,
                  "input": true,
                  "validate": {
                    "required": true
                  }
                }
              ]
            }
          ]
        },
        {
          "label": "instituteConfiguration",
          "key": "configuration",
          "components": [
            {
              "label": "Columns",
              "columns": [
                {
                  "components": [
                      {
                          "label": "HTML",
                          "tag": "h5",
                          "className": "font-weight-normal text-secondary mb-3",
                          "content": "{{instance.t('OnlyForLocalInstituteHelp')}}",
                          "refreshOnChange": false,
                          "tableView": false,
                          "type": "htmlelement",
                          "input": false,
                          "conditional": {
                            "show": true,
                            "when": "local",
                            "eq": "false"
                          }
                        },
                    {
                      "label": "courseClassUrlTemplate",
                      "description": "CourseClassUrlTemplateHelp",
                      "tableView": true,
                      "key": "instituteConfiguration.courseClassUrlTemplate",
                      "type": "textfield",
                      "input": true,
                      "hideOnChildrenHidden": false,
                      "conditional": {
                          "show": false,
                          "when": "local",
                          "eq": "false"
                      }
                    },
                    {
                      "label": "useDigitalSignature",
                      "description": "UseDigitalSignatureHelp",
                      "tableView": false,
                      "key": "instituteConfiguration.useDigitalSignature",
                      "type": "checkbox",
                      "input": true,
                      "defaultValue": false,
                      "hideOnChildrenHidden": false,
                      "conditional": {
                          "show": false,
                          "when": "local",
                          "eq": "false"
                      }
                    }
                  ],
                  "width": 6,
                  "offset": 0,
                  "push": 0,
                  "pull": 0,
                  "size": "md"
                },
                {
                  "components": [
                    {
                      "label": "eLearningUrlTemplate",
                      "description": "ElearningTemplateUrlHelp",
                      "tableView": true,
                      "key": "instituteConfiguration.eLearningUrlTemplate",
                      "type": "textfield",
                      "input": true,
                      "hideOnChildrenHidden": false,
                      "conditional": {
                          "show": false,
                          "when": "local",
                          "eq": "false"
                      }
                    },
                    {
                      "label": "showPendingGrades",
                      "description": "ShowPendingGradesHelp",
                      "tableView": false,
                      "key": "instituteConfiguration.showPendingGrades",
                      "type": "checkbox",
                      "input": true,
                      "defaultValue": false,
                      "hideOnChildrenHidden": false,
                      "conditional": {
                          "show": false,
                          "when": "local",
                          "eq": "false"
                      }
                    }
                  ],
                  "width": 6,
                  "offset": 0,
                  "push": 0,
                  "pull": 0,
                  "size": "md"
                }
              ],
              "key": "columns1",
              "type": "columns",
              "input": false,
              "tableView": false
            }
          ]
        },
        {
          "label": "locales",
          "key": "otherLanguages",
          "components": [
            {
              "label": "HTML",
              "tag": "h5",
              "className": "font-weight-normal text-secondary mb-3",
              "content": "{{instance.t('NotYetImplemented')}}",
              "refreshOnChange": false,
              "tableView": false,
              "type": "htmlelement",
              "input": false
            }
          ]
        }
      ],
      "key": "tabs",
      "type": "tabs",
      "input": false,
      "tableView": false
    },
    {
      "type": "button",
      "label": "Submit",
      "key": "submit",
      "disableOnInvalid": true,
      "input": true,
      "tableView": false
    }
  ]
}
