{
  "title": "StudentRequestActionsTypes.RequestDocumentActions",
  "model": "RequestDocumentActions",
  "searchExpression": "(indexof(student/person/familyName, '${text}') ge 0 or indexof(student/person/givenName, '${text}') ge 0 or indexof(student/studentIdentifier, '${text}') ge 0 or indexof(agent/alternateName , '${text}') ge 0)",
  "selectable": true,
  "multipleSelect": true,
  "columns": [
    {
      "name": "id",
      "property": "id",
      "formatter": "ActionLinkFormatter",
      "actions": [
        {
          "title": "Requests.Preview.Label",
          "href": "#/requests/${id}/"
        }
      ]
    },
    {
      "name": "additionalType",
      "property": "additionalType",
      "hidden": true
    },
    {
      "name": "object/name",
      "property": "object",
      "title": "Requests.DocumentTemplate"
    },
    {
      "name": "student/studentIdentifier",
      "property": "studentIdentifier",
      "title": "Requests.StudentIdentifier"
    },
    {
      "name": "student/person/familyName",
      "property": "familyName",
      "title": "Requests.FullName",
      "formatter": "TemplateFormatter",
      "formatString": "${familyName} ${givenName}"
    },
    {
      "name": "student/person/givenName",
      "property": "givenName",
      "title": "Requests.GivenName",
      "hidden": true
    },
    {
      "name": "student/studentStatus/alternateName",
      "property": "studentStatus",
      "title": "Requests.StudentStatus",
      "formatter": "TranslationFormatter",
      "formatString": "StudentStatuses.${value}"
    },
    {
      "name": "startTime",
      "property": "startTime",
      "title": "Requests.StartTime",
      "formatter": "DateTimeFormatter",
      "formatString": "shortDate"
    },
    {
      "name": "actionStatus/alternateName",
      "property": "actionStatus",
      "title": "Requests.ActionStatusTitle",
      "formatters": [
        {
          "formatter": "TranslationFormatter",
          "formatString": "ActionStatusTypes.${value}"
        },
        {
          "formatter": "NgClassFormatter",
          "formatOptions": {
            "ngClass": {
              "text-danger": "'${actionStatus}'==='CancelledActionStatus' || '${actionStatus}'==='FailedActionStatus'",
              "text-primary": "'${actionStatus}'==='ActiveActionStatus' || '${actionStatus}'==='PotentialActionStatus'",
              "text-success": "'${actionStatus}'==='CompletedActionStatus'"
            }
          }
        }
      ]
    },
    {
      "name": "agent/alternateName",
      "property": "agentName",
      "title": "Requests.AgentName"
    },
    {
      "name": "result/documentCode",
      "property": "documentCode",
      "title": "Documents.DocumentCode",
      "hidden": true,
      "formatter": "TemplateFormatter",
      "formatString": "${documentCode}"
    },
    {
      "name": "result/parentDocumentSeries",
      "property": "parentDocumentSeries",
      "title": "Documents.ParentDocumentSeries",
      "hidden": true
    },
    {
      "name": "result/published",
      "property": "published",
      "title": "Documents.Published",
      "formatter": "TrueFalseFormatter"
    },
    {
      "name": "result/id",
      "formatter": "ButtonFormatter",
      "property": "result",
      "className": "text-center",
      "title": "Requests.File",
      "formatOptions": {
        "buttonContent": "<i class=\"fas fa-2x fa-file-download text-indigo\"></i>",
        "buttonClass": "btn btn-default",
        "commands": [ "." ],
        "navigationExtras": {
          "replaceUrl": false,
          "queryParams": {
            "download": "${documentCode}"
          }
        }
      }
    },
    {
      "name": "object/reportTemplate/signReport",
      "property": "signReport",
      "title": "Documents.RequiredSignature",
      "hidden": true,
      "formatter": "TrueFalseFormatter"
    },
    {
      "name":"result/signed",
      "property": "signed",
      "title":"Requests.DigitalSignature",
      "formatters": [
        {
          "formatter": "TrueFalseFormatter"
        },
        {
          "formatter": "NgClassFormatter",
          "formatOptions": {
            "ngClass": {
              "text-success": "${signed}",
              "d-none": "${result==null}",
              "text-danger": "${result && !signed}"
            }
          }
        }
      ]
    },
    {
      "name": "result/url",
      "property": "resultUrl",
      "title": "Reports.Attributes.url",
      "hidden": true
    },
    {
      "name": "result/documentNumber",
      "property": "documentNumber",
      "title": "Documents.DocumentNumber",
      "hidden": true
    },
    {
      "name": "object/reportTemplate/id",
      "property": "reportTemplate",
      "title": "Reports.Attributes.reportTemplate",
      "hidden": true
    },
    {
      "name": "student/id",
      "property": "student",
      "title": "Requests.Student",
      "hidden": true
    }
  ],
  "defaults": {
    "filter": "(student/department eq ${currentDepartment})",
    "orderBy": "dateCreated desc"
  },
  "criteria": [
    {
      "name": "object",
      "filter": "(indexof(object/name, '${value}') ge 0)",
      "type": "text"
    },
    {
      "name": "studentName",
      "filter": "(indexof(student/person/familyName, '${value}') ge 0 or indexof(student/person/givenName, '${value}') ge 0)",
      "type": "text"
    },
    {
      "name": "studentStatus",
      "filter": "(student/studentStatus/alternateName eq '${value}')",
      "type": "text"
    },
    {
      "name": "studentIdentifier",
      "filter": "(indexof(student/studentIdentifier, '${value}') ge 0)",
      "type": "text"
    },
    {
      "name": "actionStatus",
      "filter": "(actionStatus/alternateName eq '${value}')",
      "type": "text"
    },
    {
      "name": "object",
      "filter": "(object/name eq '${value}')",
      "type": "text"
    },
    {
      "name": "result",
      "filter": "${value >=1 ? '(result ne null)': '(result eq null)'}",
      "type": "text",
      "title":  "Requests.RelatedFile"
    },
    {
      "name": "signed",
      "filter": "${value >= 1 ? '(result/signed eq 1)' : '(result/signed eq null or result/signed eq 0)'}",
      "type": "text"
    },
    {
      "name": "published",
      "filter": "${value >= 1 ? '(result/published eq 1)' : '(result/published eq null or result/published eq 0)'}",
      "type": "text"
    },
    {
      "name": "agentName",
      "filter": "(indexof(agent/alternateName, '${value}') ge 0)",
      "type": "text"
    }
  ]
}
