{
  "title": "Registrations",
  "model": "StudentPeriodRegistrations",
  "searchExpression":"indexof(student/person/givenName, '${text}') ge 0 or indexof(student/person/familyName, '${text}') ge 0 or indexof(student/studentIdentifier, '${text}') ge 0 or indexof(registrationYear/alternateName, '${text}') ge 0",
  "columns": [
    {
      "name":"id",
      "title": "Registrations.ListTable.ID",
      "hidden" : "true"
    },
    {
      "name": "student",
      "hidden" : "true"
    },
    {
      "name":"registrationYear/alternateName",
      "property" : "academicYear",
      "title" : "Labels.AcademicYear"
    },
    {
      "name":"registrationPeriod/alternateName",
      "property" : "period",
      "title":"Labels.PeriodLabel",
      "formatter": "TranslationFormatter",
      "formatString": "Periods.${value}"
    },
    {
      "name":"semester",
      "title":"Students.semester"
    },
    {
      "name":"registrationDate",
      "title":"Registrations.ListTable.RegistrationDate",
      "formatter": "DateTimeFormatter",
      "formatString": "shortDate"
    },
    {
      "name":"registrationModifiedDate",
      "title":"Students.ModifiedDate",
      "formatter": "DateTimeFormatter",
      "formatString": "short"
    },
    {
      "name": "status/alternateName",
      "property": "status",
      "title": "Students.Status",
      "formatters": [
        {
          "formatter": "TranslationFormatter",
          "formatString": "RegistrationStatus.${value}"
        },
        {
          "formatter": "NgClassFormatter",
          "formatOptions": {
            "ngClass": {
              "text-danger": "'${status}'==='closed'",
              "text-primary": "'${status}'==='pending'",
              "text-success": "'${status}'==='open'"
            }
          }
        }
      ]
    },
    {
      "name": "id",
      "virtual": true,
      "formatter": "ButtonFormatter",
      "formatString": "#/registrations/${id}/",
      "className": "text-center",
      "formatOptions": {
        "buttonContent": "<i class=\"far fa-eye text-indigo\"></i>",
        "buttonClass": "btn btn-default"
      }
    }
  ],
  "defaults":{
    "filter": "(student/department eq ${currentDepartment})"
  },
  "criteria" : [
    {
      "name": "studentIdentifier",
      "filter": "indexof(student/studentIdentifier, '${value}') ge 0",
      "type": "text"
    },
    {
      "name": "studentName",
      "filter": "(indexof(student/person/givenName, '${value}') ge 0 or indexof(student/person/familyName, '${value}') ge 0)",
      "type": "text"
    },
    {
      "name": "status",
      "filter": "(status/alternateName eq '${value}')",
      "type": "text"
    },
    {
      "name": "registrationDate",
      "filter": "(registrationDate eq '${value}')",
      "type": "text"
    },
    {
      "name": "registrationPeriod",
      "filter": "(registrationPeriod/alternateName eq '${value}')",
      "type": "text"
    },
    {
      "name": "semester",
      "filter": "(semester eq '${value}')",
      "type": "text"
    },
    {
      "name": "registrationYear",
      "filter": "(registrationYear eq '${value}')",
      "type": "text"
    }
  ],
  "paths": [
    {
      "name": "Registrations.CurrentYear",
      "show": true,
      "alternateName": "list/currentYear",
      "filter": {}
    },
    {
      "name": "Registrations.All",
      "alternateName": "list/index",
      "show": true,
      "filter": {}
    }
  ]
}
