{
  "model": "StudentRemoveActions",
  "title": "Student Removal",
  "settings": {
    "i18n": {
      "el": {
        "Student Removal": "Διαγραφή Φοιτητή"
      }
    }
  },
  "components": [
    {
      "type": "fieldset",
      "legend": "Student Information",
      "components": [
        {
          "columns": [
            {
              "components": [
                {
                  "label": "Given Name",
                  "labelPosition": "top",
                  "widget": {
                    "type": "input"
                  },
                  "validate": {
                    "required": false
                  },
                  "key": "object.person.givenName",
                  "type": "textfield",
                  "input": true,
                  "disabled": true
                }
              ],
              "width": 5
            },
            {
              "components": [
                {
                  "label": "Family Name",
                  "labelPosition": "top",
                  "widget": {
                    "type": "input"
                  },
                  "validate": {
                    "required": false
                  },
                  "key": "object.person.familyName",
                  "type": "textfield",
                  "input": true,
                  "disabled": true
                }
              ],
              "width": 6
            }
          ],
          "customClass": "text-dark",
          "hideLabel": true,
          "type": "columns",
          "input": false
        },
        {
          "columns": [
            {
              "components": [
                {
                  "label": "Registration Number",
                  "labelPosition": "top",
                  "widget": {
                    "type": "input"
                  },
                  "validate": {
                    "required": false
                  },
                  "key": "object.studentIdentifier",
                  "type": "textfield",
                  "input": true,
                  "disabled": true
                }
              ],
              "width": 4
            },
            {
              "components": [
                {
                  "label": "Department Name",
                  "labelPosition": "top",
                  "widget": {
                    "type": "input"
                  },
                  "validate": {
                    "required": false
                  },
                  "key": "object.department.name",
                  "type": "textfield",
                  "input": true,
                  "disabled": true
                }
              ],
              "width": 7
            }
          ],
          "customClass": "text-dark",
          "hideLabel": true,
          "type": "columns",
          "input": false
        }
      ]
    },
    {
      "type": "fieldset",
      "legend": "Student Removal Information",
      "components": [
        {
          "columns": [
            {
              "components": [
                {
                  "label": "Removal Number",
                  "labelPosition": "top",
                  "widget": {
                    "type": "input"
                  },
                  "validate": {
                    "required": true
                  },
                  "key": "removalNumber",
                  "type": "textfield",
                  "input": true
                }
              ],
              "width": 3
            },
            {
              "components": [
                {
                  "label": "Removal Date",
                  "key": "removalDate",
                  "labelPosition": "top",
                  "widget": {
                    "type": "input"
                  },
                  "validate": {
                    "required": true
                  },
                  "type": "datetime",
                  "format": "dd/MM/yyyy",
                  "input": true
                }
              ],
              "width": 3
            },
            {
              "components": [
                {
                  "label": "Removal Year",
                  "labelPosition": "top",
                  "key": "removalYear.alternateName",
                  "type": "select",
                  "searchEnabled": false,
                  "dataSrc": "url",
                  "data": {
                    "url": "AcademicYears?$top={{limit}}&$skip={{skip}}&$orderby=id desc",
                    "headers": []
                  },
                  "limit": 20,
                  "template": "{{ item.alternateName }}",
                  "input": true,
                  "lazyLoad": true,
                  "selectValues": "value",
                  "widget": "choicesjs",
                  "validate": {
                    "required": true
                  }
                }
              ],
              "width": 3
            },
            {
              "components": [
                {
                  "label": "Removal Period",
                  "labelPosition": "top",
                  "widget": "choicesjs",
                  "dataSrc": "url",
                  "data": {
                    "url": "AcademicPeriods",
                    "headers": []
                  },
                  "template": "{{ item.name }}",
                  "selectValues": "value",
                  "key": "removalPeriod.name",
                  "type": "select",
                  "input": true,
                  "searchEnabled": false,
                  "validate": {
                    "required": true
                  }
                }
              ],
              "width": 3
            },
            {
              "components": [
                {
                  "label": "Removal Decision",
                  "labelPosition": "top",
                  "widget": {
                    "type": "input"
                  },
                  "validate": {
                    "required": true
                  },
                  "key": "removalDecision",
                  "type": "textfield",
                  "input": true
                }
              ],
              "width": 6
            },
            {
              "components": [
                {
                  "label": "Removal Request",
                  "key": "removalRequest",
                  "labelPosition": "top",
                  "widget": {
                    "type": "input"
                  },
                  "validate": {
                    "required": false
                  },
                  "type": "textfield",
                  "input": true
                }
              ],
              "width": 6
            },
            {
              "components": [
                {
                  "label": "Removal Department",
                  "key": "removalDepartment",
                  "labelPosition": "top",
                  "validate": {
                    "required": false
                  },
                  "input": true,
                  "type": "textfield",
                  "clearOnRefresh": true,
                  "disabled": false
                }
              ],
              "width": 12,
              "offset": 0,
              "push": 0,
              "pull": 0
            },
            {
              "components": [
                {
                  "label": "Removal Reason",
                  "labelPosition": "top",
                  "widget": {
                    "type": "input"
                  },
                  "validate": {
                    "required": true
                  },
                  "key": "removalReason",
                  "type": "textarea",
                  "input": true
                }
              ],
              "width": 12
            },
            {
              "components": [
                {
                  "label": "Removal Comments",
                  "labelPosition": "top",
                  "widget": {
                    "type": "input"
                  },
                  "validate": {
                    "required": false
                  },
                  "key": "removalComments",
                  "type": "textarea",
                  "input": true
                }
              ],
              "width": 12
            },
            {
              "components": [
                {
                  "label": "Action Status",
                  "labelPosition": "top",
                  "dataSrc": "url",
                  "data": {
                    "url": "ActionStatusTypes",
                    "headers": []
                  },
                  "template": "{{ item.name }}",
                  "key": "actionStatus",
                  "type": "select",
                  "input": true,
                  "selectValues": "value",
                  "widget": "choicesjs",
                  "searchEnabled": false,
                  "validate": {
                    "required": false
                  },
                  "disabled": true,
                  "valueProperty": "id",
                  "lazyLoad": false,
                  "hidden": true
                }
              ],
              "width": 12
            },
            {
              "components": [
                {
                  "label": "Status",
                  "widget": "choicesjs",
                  "dataSrc": "url",
                  "data": {
                    "url": "ActionStatusTypes?$filter=alternateName eq  'CompletedActionStatus' or alternateName eq  'ActiveActionStatus'",
                    "headers": []
                  },
                  "selectThreshold": 0.3,
                  "validate": {
                    "unique": false,
                    "multiple": false
                  },
                  "template": "{{ item.alternateName }}",
                  "key": "actionStatus",
                  "selectValues": "value",
                  "type": "select",
                  "input": true,
                  "hideOnChildrenHidden": false,
                  "disableLimit": false,
                  "lazyLoad": false
                }
              ],
              "width": 4,
              "offset": 0,
              "push": 0,
              "pull": 0
            }
          ],
          "customClass": "text-dark",
          "hideLabel": true,
          "type": "columns",
          "input": false
        }
      ]
    },
    {
      "type": "button",
      "label": "Submit",
      "key": "submit",
      "disableOnInvalid": true,
      "input": true
    }
  ],
  "width": 3
}
